<?xml version="1.0" standalone="no"?>
<!DOCTYPE svg PUBLIC "-//W3C//DTD SVG 1.1//EN" "http://www.w3.org/Graphics/SVG/1.1/DTD/svg11.dtd">
<svg xmlns="http://www.w3.org/2000/svg">
<metadata>Copyright (C) 2015 by original authors @ fontello.com</metadata>
<defs>
<font id="app" horiz-adv-x="1000" >
<font-face font-family="app" font-weight="400" font-stretch="normal" units-per-em="1000" ascent="850" descent="-150" />
<missing-glyph horiz-adv-x="1000" />
<glyph glyph-name="happy" unicode="&#xe800;" d="m261 800c-60 0-109-65-109-144 0-80 49-145 109-145s110 65 110 145c0 79-49 144-110 144z m477 0c-61 0-110-65-110-144 0-80 49-145 110-145 60 0 110 65 110 145 0 79-50 144-110 144z m208-599c-13 0-27-5-37-16-4-4-8-8-12-12-111-109-253-164-396-165-142-2-285 50-396 155l-3 3-12 12c-21 21-54 20-75-1-20-21-20-55 1-76 3-4 8-8 14-14l3-3c132-124 301-186 469-184 169 1 337 67 468 195 5 5 9 10 14 14 20 22 20 56-1 77-10 10-23 15-37 15z" horiz-adv-x="999" />
<glyph glyph-name="unhappy" unicode="&#xe801;" d="m261 800c-60 0-109-65-109-144 0-80 49-145 109-145s110 65 110 145c0 79-49 144-110 144z m477 0c-61 0-110-65-110-144 0-80 49-145 110-145 60 0 110 65 110 145 0 79-50 144-110 144z m-244-599c-165 0-331-62-461-184l-3-3c-6-5-11-10-14-14-21-21-21-55-1-76 21-21 54-21 75-1l12 12 3 3c111 105 254 157 396 155 143-1 285-56 396-165 4-4 8-8 12-12 20-21 54-21 74-1 21 21 21 55 1 77-5 5-9 10-14 14-131 129-299 194-468 195-3 0-6 0-8 0z" horiz-adv-x="999" />
<glyph glyph-name="thumbsup" unicode="&#xe803;" d="m744 850c-60 0-109-64-109-143 0-79 49-143 109-143 60 0 108 64 108 143 0 79-48 143-108 143z m-602-80c-29 0-53-24-53-54s24-53 53-53l290 0c30 0 54 24 54 53s-24 53-54 53l-290 1z m1040-21c-16 0-34-2-54-7-112-51-109-174-93-266l-131 0c-68 0-124-53-124-123 0-34 8-71 30-98-10-11-18-24-23-39-18-47-10-105 23-143-5-6-18-27-18-27-29-57-10-144 46-179 17-11 38-17 64-17l378 0c91 3 167 76 167 168l0 288c0 49-30 108-49 151-25 58-49 116-73 174-30 72-71 118-143 118z m3-115c30 1 42-48 51-67 21-52 42-129 64-181 21-47 38-88 38-104l0-255c0-41-36-72-76-74l-332 0c-17 0-26 9-30 24-5 15-7 34 4 47 6 8 16 13 26 13 21-1 39 17 39 38 0 21-17 37-38 37-9 0-18 4-24 11-15 16-16 50 0 65 3 4 7 6 12 8 4 1 8 2 12 2 20 0 38 17 38 38 0 21-17 38-38 38-28 0-34 28-34 50 0 12 7 23 17 29-1 2 189 4 210 4 27 0 47 30 33 55-27 51-45 207 22 221 2 1 4 1 6 1z m-1133-264c-7 0-14-1-20-4-27-12-39-44-27-71 66-148 194-254 344-297 29-8 59-14 90-17 30-3 61-4 91-2l3 0 2 0c30 3 52 28 50 58-2 29-28 51-58 49l-2 0-1 0c-25-2-50-1-74 1-24 3-48 8-72 14-120 34-222 120-276 238-9 20-29 32-50 31z" horiz-adv-x="1447" />
<glyph glyph-name="search" unicode="&#xe804;" d="m643 386q0 103-74 176t-176 74-177-74-73-176 73-177 177-73 176 73 74 177z m286-465q0-29-22-50t-50-21q-30 0-50 21l-191 191q-100-69-223-69-80 0-153 31t-125 84-84 125-31 153 31 152 84 126 125 84 153 31 152-31 126-84 84-126 31-152q0-123-69-223l191-191q21-21 21-51z" horiz-adv-x="928.6" />
<glyph glyph-name="mail" unicode="&#xe805;" d="m929 11v428q-18-20-39-37-149-114-238-188-28-24-46-38t-48-27-57-13h-2q-26 0-57 13t-48 27-46 38q-88 74-238 188-21 17-39 37v-428q0-8 6-13t12-5h822q7 0 12 5t6 13z m0 586v14t-1 7-1 7-3 5-5 4-8 2h-822q-7 0-12-6t-6-12q0-94 82-159 108-85 224-177 4-2 20-16t25-21 25-18 28-15 24-5h2q11 0 24 5t28 15 25 18 25 21 20 16q116 92 224 177 30 24 56 65t26 73z m71 21v-607q0-37-26-63t-63-27h-822q-36 0-63 27t-26 63v607q0 37 26 63t63 26h822q37 0 63-26t26-63z" horiz-adv-x="1000" />
<glyph glyph-name="camera" unicode="&#xe806;" d="m536 475q66 0 113-47t47-114-47-113-113-47-114 47-47 113 47 114 114 47z m393 232q59 0 101-42t41-101v-500q0-59-41-101t-101-42h-786q-59 0-101 42t-42 101v500q0 59 42 101t101 42h125l28 76q11 27 39 47t58 20h286q29 0 57-20t39-47l29-76h125z m-393-643q103 0 176 74t74 176-74 177-176 73-177-73-73-177 73-176 177-74z" horiz-adv-x="1071.4" />
<glyph glyph-name="qrcode" unicode="&#xe807;" d="m214 207v-71h-71v71h71z m0 429v-72h-71v72h71z m429 0v-72h-72v72h72z m-572-571h215v214h-215v-214z m0 428h215v214h-215v-214z m429 0h214v214h-214v-214z m-143-143v-357h-357v357h357z m286-286v-71h-72v71h72z m143 0v-71h-72v71h72z m0 286v-214h-215v71h-71v-214h-71v357h214v-71h71v71h72z m-429 429v-358h-357v358h357z m429 0v-358h-357v358h357z" horiz-adv-x="785.7" />
<glyph glyph-name="cancel" unicode="&#xe808;" d="m724 112q0-22-15-38l-76-76q-16-15-38-15t-38 15l-164 165-164-165q-16-15-38-15t-38 15l-76 76q-16 16-16 38t16 38l164 164-164 164q-16 16-16 38t16 38l76 76q16 16 38 16t38-16l164-164 164 164q16 16 38 16t38-16l76-76q15-15 15-38t-15-38l-164-164 164-164q15-15 15-38z" horiz-adv-x="785.7" />
<glyph glyph-name="help" unicode="&#xe809;" d="m393 149v-134q0-9-7-16t-15-6h-134q-9 0-16 6t-7 16v134q0 9 7 16t16 6h134q8 0 15-6t7-16z m176 335q0-30-8-56t-20-43-31-33-32-25-34-19q-23-13-38-37t-15-37q0-10-7-18t-16-9h-134q-8 0-14 10t-6 21v26q0 46 37 87t79 60q33 15 47 32t14 42q0 23-26 41t-60 18q-36 0-60-16-20-14-60-64-7-9-17-9-7 0-14 4l-91 70q-8 6-9 14t3 16q89 148 259 148 45 0 90-17t81-46 59-72 23-88z" horiz-adv-x="571.4" />
<glyph glyph-name="lock" unicode="&#xe80a;" d="m179 421h285v108q0 59-42 101t-101 41-101-41-41-101v-108z m464-53v-322q0-22-16-37t-38-16h-535q-23 0-38 16t-16 37v322q0 22 16 38t38 15h17v108q0 102 74 176t176 74 177-74 73-176v-108h18q23 0 38-15t16-38z" horiz-adv-x="642.9" />
<glyph glyph-name="lock-open" unicode="&#xe80b;" d="m929 529v-143q0-15-11-25t-25-11h-36q-14 0-25 11t-11 25v143q0 59-41 101t-101 41-101-41-42-101v-108h53q23 0 38-15t16-38v-322q0-22-16-37t-38-16h-535q-23 0-38 16t-16 37v322q0 22 16 38t38 15h375v108q0 103 73 176t177 74 176-74 74-176z" horiz-adv-x="928.6" />
<glyph glyph-name="attention-alt" unicode="&#xe80c;" d="m286 154v-125q0-15-11-25t-25-11h-143q-14 0-25 11t-11 25v125q0 14 11 25t25 10h143q15 0 25-10t11-25z m16 589l-15-429q-1-14-12-25t-25-10h-143q-14 0-25 10t-12 25l-15 429q-1 14 9 25t25 11h179q14 0 25-11t9-25z" horiz-adv-x="357.1" />
<glyph glyph-name="trash-empty" unicode="&#xe80d;" d="m286 439v-321q0-8-5-13t-13-5h-36q-8 0-13 5t-5 13v321q0 8 5 13t13 5h36q8 0 13-5t5-13z m143 0v-321q0-8-5-13t-13-5h-36q-8 0-13 5t-5 13v321q0 8 5 13t13 5h36q8 0 13-5t5-13z m142 0v-321q0-8-5-13t-12-5h-36q-8 0-13 5t-5 13v321q0 8 5 13t13 5h36q7 0 12-5t5-13z m72-404v529h-500v-529q0-12 4-22t8-15 6-5h464q2 0 6 5t8 15 4 22z m-375 601h250l-27 65q-4 5-9 6h-177q-6-1-10-6z m518-18v-36q0-8-5-13t-13-5h-54v-529q0-46-26-80t-63-34h-464q-37 0-63 33t-27 79v531h-53q-8 0-13 5t-5 13v36q0 8 5 13t13 5h172l39 93q9 21 31 35t44 15h178q22 0 44-15t30-35l39-93h173q8 0 13-5t5-13z" horiz-adv-x="785.7" />
<glyph glyph-name="cog" unicode="&#xe80e;" d="m571 350q0 59-41 101t-101 42-101-42-42-101 42-101 101-42 101 42 41 101z m286 61v-124q0-7-4-13t-11-7l-104-16q-10-30-21-51 19-27 59-77 6-6 6-13t-5-13q-15-21-55-61t-53-39q-7 0-14 5l-77 60q-25-13-51-21-9-76-16-104-4-16-20-16h-124q-8 0-14 5t-6 12l-16 103q-27 9-50 21l-79-60q-6-5-14-5-8 0-14 6-70 64-92 94-4 5-4 13 0 6 5 12 8 12 28 37t30 40q-15 28-23 55l-102 15q-7 1-11 7t-5 13v124q0 7 5 13t10 7l104 16q8 25 22 51-23 32-60 77-6 7-6 14 0 5 5 12 15 20 55 60t53 40q7 0 15-5l77-60q24 13 50 21 9 76 17 104 3 15 20 15h124q7 0 13-4t7-12l15-103q28-9 50-21l80 60q5 5 13 5 7 0 14-5 72-67 92-95 4-5 4-13 0-6-4-12-9-12-29-38t-30-39q14-28 23-55l102-15q7-1 12-7t4-13z" horiz-adv-x="857.1" />
<glyph glyph-name="sort-name-up" unicode="&#xe80f;" d="m665 622h98l-40 122-6 26q-2 9-2 11h-2l-2-11q0 0-1-10t-5-16z m-254-576q0-6-6-13l-178-178q-5-5-13-5-6 0-13 5l-178 179q-8 9-4 19 4 11 17 11h107v768q0 8 5 13t13 5h107q8 0 13-5t5-13v-768h107q8 0 13-5t5-13z m466-66v-130h-326v50l206 295q7 10 12 16l6 5v1q-1 0-4 0t-4 0q-6-2-16-2h-130v-64h-67v128h317v-50l-206-296q-4-4-12-14l-6-7v-1l8 1q5 2 16 2h139v66h67z m50 501v-60h-161v60h42l-26 80h-136l-26-80h42v-60h-160v60h39l128 369h90l129-369h39z" horiz-adv-x="928.6" />
<glyph glyph-name="sort-name-down" unicode="&#xe810;" d="m665 51h98l-40 122-6 26q-2 9-2 11h-2l-2-11q0-1-1-10t-5-16z m-254-5q0-6-6-13l-178-178q-5-5-13-5-6 0-13 5l-178 179q-8 9-4 19 4 11 17 11h107v768q0 8 5 13t13 5h107q8 0 13-5t5-13v-768h107q8 0 13-5t5-13z m516-137v-59h-161v59h42l-26 80h-136l-26-80h42v-59h-160v59h39l128 370h90l129-370h39z m-50 642v-130h-326v51l206 295q7 10 12 15l6 5v2q-1 0-4-1t-4 0q-6-2-16-2h-130v-64h-67v128h317v-50l-206-295q-4-5-12-15l-6-6v-1l8 1q5 1 16 1h139v66h67z" horiz-adv-x="928.6" />
<glyph glyph-name="down-open" unicode="&#xe811;" d="m939 399l-414-413q-10-11-25-11t-25 11l-414 413q-11 11-11 26t11 25l92 92q11 11 26 11t25-11l296-296 296 296q11 11 25 11t26-11l92-92q11-11 11-25t-11-26z" horiz-adv-x="1000" />
<glyph glyph-name="up-open" unicode="&#xe812;" d="m939 107l-92-92q-11-10-26-10t-25 10l-296 297-296-297q-11-10-25-10t-26 10l-92 92q-11 11-11 26t11 25l414 414q11 10 25 10t25-10l414-414q11-11 11-25t-11-26z" horiz-adv-x="1000" />
<glyph glyph-name="sort" unicode="&#xe813;" d="m571 243q0-15-10-25l-250-250q-11-11-25-11t-25 11l-250 250q-11 10-11 25t11 25 25 11h500q14 0 25-11t10-25z m0 214q0-14-10-25t-25-11h-500q-15 0-25 11t-11 25 11 25l250 250q10 11 25 11t25-11l250-250q10-10 10-25z" horiz-adv-x="571.4" />
<glyph glyph-name="sort-down" unicode="&#xe814;" d="m571 243q0-15-10-25l-250-250q-11-11-25-11t-25 11l-250 250q-11 10-11 25t11 25 25 11h500q14 0 25-11t10-25z" horiz-adv-x="571.4" />
<glyph glyph-name="sort-up" unicode="&#xe815;" d="m571 457q0-14-10-25t-25-11h-500q-15 0-25 11t-11 25 11 25l250 250q10 11 25 11t25-11l250-250q10-10 10-25z" horiz-adv-x="571.4" />
<glyph glyph-name="sort-number-up" unicode="&#xe816;" d="m751 117q0 35-24 65t-58 30q-29 0-46-21t-18-52 21-53 58-22q28 0 48 15t19 38z m-340-71q0-6-6-13l-178-178q-5-5-13-5-6 0-13 5l-178 179q-8 9-4 19 4 11 17 11h107v768q0 8 5 13t13 5h107q8 0 13-5t5-13v-768h107q8 0 13-5t5-13z m418 39q0-35-7-68t-23-64-38-53-55-36-71-14q-35 0-60 9-14 4-24 8l22 63q8-4 17-6 21-7 42-7 47 0 75 33t37 81h-1q-11-13-34-21t-47-8q-59 0-97 40t-37 97q0 58 40 99t101 41q69 0 114-53t46-141z m-17 400v-64h-261v64h93v241q0 4 0 11t1 9v9h-2l-3-7q-5-7-15-17l-35-32-45 48 107 103h68v-365h92z" horiz-adv-x="857.1" />
<glyph glyph-name="sort-number-down" unicode="&#xe817;" d="m751 689q0 35-24 64t-58 30q-29 0-46-21t-18-52 21-53 58-21q28 0 48 15t19 38z m-340-643q0-6-6-13l-178-178q-5-5-13-5-6 0-13 5l-178 179q-8 9-4 19 4 11 17 11h107v768q0 8 5 13t13 5h107q8 0 13-5t5-13v-768h107q8 0 13-5t5-13z m401-132v-64h-261v64h93v241q0 4 0 10t1 10v9h-2l-3-7q-5-7-15-17l-35-33-45 48 107 104h68v-365h92z m17 742q0-34-7-67t-23-64-38-53-55-37-71-14q-35 0-60 9-14 5-24 9l22 63q8-4 17-6 21-8 42-8 47 0 75 33t37 81h-1q-11-13-34-20t-47-8q-59 0-97 40t-37 96q0 59 40 99t101 41q69 0 114-53t46-141z" horiz-adv-x="857.1" />
<glyph glyph-name="exchange" unicode="&#xe819;" d="m1000 189v-107q0-7-5-12t-13-6h-768v-107q0-7-5-12t-13-6q-6 0-13 6l-178 178q-5 5-5 13 0 8 5 13l179 178q5 5 12 5 8 0 13-5t5-13v-107h768q7 0 13-5t5-13z m0 304q0-8-5-13l-179-179q-5-5-12-5-8 0-13 6t-5 12v107h-768q-7 0-13 6t-5 12v107q0 8 5 13t13 5h768v107q0 8 5 13t13 5q6 0 13-5l178-178q5-5 5-13z" horiz-adv-x="1000" />
</font>
</defs>
</svg>